ACC 548 TAX TREATMENT OF INDIVIDUALS AND PROPERTY TRANSACTIONS
"This course provides detailed coverage of the federal income tax treatment of individual taxpayers.  It includes coverage of inclusions, exclusions, deductions, credits, rates of taxation, special tax computations and the tax aspects of property transactions.  It also includes tax research."
Credit Hours,Teacher First Name,Teacher Last Name,Class Start Time,Class End Time,Class Section,Class Number,Location,Days
4,David,Roberts,5:45 PM,9:00 PM,201,24850,Loop Campus,Tuesday
4,Edward,Foth,,,240,25166,OnLine,
