ANI 425 VISUAL STORYTELLING
"This class focuses on storyboarding and animatics as key pre-production tools for animation, film, and game development projects.  Areas of focus include narrative development, drawing, performance, and editing.  Students will apply these techniques to create an animatic: a comprehensive time-based draft for a short film.  PREREQUISITE(S): None"
Credit Hours,Teacher First Name,Teacher Last Name,Class Start Time,Class End Time,Class Section,Class Number,Location,Days
4,Devin,Bell,5:45 PM,9:00 PM,801,22689,Loop Campus,Thursday
