ANI 430 3D CHARACTER ANIMATION
"This course explores the art and techniques for character performance in 3D. Students will study and employ fundamental principles for character animation beginning with the essentials of blocking and inbetweening, and continuing with core mechanics including walk cycles, expressions, and lip sync. Students are required to animate weekly shots culminating in a final lip synced character performance. PREREQUISITE(S): ANI 423"
Credit Hours,Teacher First Name,Teacher Last Name,Class Start Time,Class End Time,Class Section,Class Number,Location,Days
4,Brian,Ferguson,10:10 AM,11:40 AM,501,22691,Loop Campus,"Monday,Wednesday"
