APS 127 GUITAR
"Advanced individual instruction in guitar performance at the undergraduate level. Undergraduate music students are limited to 4 credits of applied lessons in any given quarter, and may not exceed a total of 48 credits of applied lessons over their entire course of study."
Credit Hours,Teacher First Name,Teacher Last Name,Class Start Time,Class End Time,Class Section,Class Number,Location,Days
2,Mark,Maxwell,12:00 AM,12:00 AM,201,21777,Lincoln Park Campus,
2,Mark,Maxwell,12:00 AM,12:00 AM,202,21778,Lincoln Park Campus,
