APS 180 VIOLA
"Advanced individual instruction in viola performance at the undergraduate level. Undergraduate music students are limited to 4 credits of applied lessons in any given quarter, and may not exceed a total of 48 credits of applied lessons over their entire course of study."
Credit Hours,Teacher First Name,Teacher Last Name,Class Start Time,Class End Time,Class Section,Class Number,Location,Days
2,Rami,Solomonow,12:00 AM,12:00 AM,201,21783,Lincoln Park Campus,
2,Rami,Solomonow,12:00 AM,12:00 AM,202,21802,Lincoln Park Campus,
2,Christine,Due,12:00 AM,12:00 AM,203,22003,Lincoln Park Campus,
2,Christine,Due,12:00 AM,12:00 AM,204,22004,Lincoln Park Campus,
