APW 125 FLUTE
"Advanced individual instruction in flute performance at the undergraduate level. Undergraduate music students are limited to 4 credits of applied lessons in any given quarter, and may not exceed a total of 48 credits of applied lessons over their entire course of study."
Credit Hours,Teacher First Name,Teacher Last Name,Class Start Time,Class End Time,Class Section,Class Number,Location,Days
2,Alyce,Johnson,12:00 AM,12:00 AM,201,21835,Lincoln Park Campus,
2,Alyce,Johnson,12:00 AM,12:00 AM,202,21836,Lincoln Park Campus,
2,Mark,Sparks,12:00 AM,12:00 AM,205,21837,Lincoln Park Campus,
2,Mark,Sparks,12:00 AM,12:00 AM,206,21838,Lincoln Park Campus,
2,Kathryn,Flum,12:00 AM,12:00 AM,207,22102,Lincoln Park Campus,
2,Kathryn,Flum,12:00 AM,12:00 AM,208,22103,Lincoln Park Campus,
