APW 420 CLARINET
"Advanced individual instruction in clarinet performance at the graduate level. Graduate music students are limited to 4 credits of applied lessons in any given quarter, and may not exceed a total of 24 credits of applied lessons over their entire course of study."
Credit Hours,Teacher First Name,Teacher Last Name,Class Start Time,Class End Time,Class Section,Class Number,Location,Days
2,Wagner,Campos,12:00 AM,12:00 AM,201,21849,Lincoln Park Campus,
2,Wagner,Campos,12:00 AM,12:00 AM,202,21850,Lincoln Park Campus,
2,Larry,Combs,12:00 AM,12:00 AM,203,21851,Lincoln Park Campus,
2,Larry,Combs,12:00 AM,12:00 AM,204,21852,Lincoln Park Campus,
2,Julie,DeRoche,12:00 AM,12:00 AM,205,21853,Lincoln Park Campus,
2,Julie,DeRoche,12:00 AM,12:00 AM,206,21854,Lincoln Park Campus,
2,Stephen,Williamson,12:00 AM,12:00 AM,207,22154,Lincoln Park Campus,
2,Stephen,Williamson,12:00 AM,12:00 AM,208,22155,Lincoln Park Campus,
