ART 218 FIGURE DRAWING
A study of the human figure through an exploration of anatomy combined with various drawing processes.
Credit Hours,Teacher First Name,Teacher Last Name,Class Start Time,Class End Time,Class Section,Class Number,Location,Days
4,Steven,Carrelli,11:20 AM,2:05 PM,201,20406,Lincoln Park Campus,"Monday,Wednesday"
4,Steven,Carrelli,2:40 PM,5:25 PM,202,20407,Lincoln Park Campus,"Monday,Wednesday"
4,Paola,Cabal,11:20 AM,2:05 PM,203,26021,Lincoln Park Campus,"Tuesday,Thursday"
