ART 101 DIGITAL TOOLS FOR VISUAL THINKERS
"As digital media become a requisite aspect of the artist and designer's professional preparation, this foundation level course focuses on building basic skills in the most common digital imaging tools. The course will cover two applications, one pixel-based imaging (Photoshop), and one vector-based imaging (Illustrator). It is designed to give students an introduction to how these applications can be used as ideational tools for exploring visual problems, possibilities and solutions, how they can be used to create digital images for output and how they can be integrated with traditional analog media and tools."
Credit Hours,Teacher First Name,Teacher Last Name,Class Start Time,Class End Time,Class Section,Class Number,Location,Days
4,Thomas,Denlinger,2:40 PM,5:25 PM,201,20412,Lincoln Park Campus,"Tuesday,Thursday"
