BBE 325 BILITERACY PRACTICES IN BILINGUAL EDUCATION AND ESL
"Analyzes and evaluates methods and materials used in bilingual education and ESL programs. Stresses effective instructional strategies and best practices in first and second language literacy development and content learning. Reviews language teaching approaches and cooperative models of learning relating to development of reading and writing in the first and second language. Presents the acquiring language through content learning versus learning language programs. Investigates appropriate first language usage in bilingual classrooms, focusing on the different content areas, appropriate terminology for native language instruction, and the study of language distribution issues (includes 15 clinical hour requirement)."
Credit Hours,Teacher First Name,Teacher Last Name,Class Start Time,Class End Time,Class Section,Class Number,Location,Days
4,Staff,Staff,5:30 PM,8:45 PM,801,24428,Lincoln Park Campus,Wednesday
