BIO 230 EPIDEMIOLOGY
"This course will involve the study of the frequency and distribution of human disease.  Students will learn how the health of a population is measured, and how medical interventions are quantitatively evaluated.  Students will analyze data from historical and modern health studies, including population surveys, case-control studies, cohort studies, and clinical trials for prevention and treatment."
Credit Hours,Teacher First Name,Teacher Last Name,Class Start Time,Class End Time,Class Section,Class Number,Location,Days
4,Elizabeth,LeClair,2:40 PM,4:10 PM,201,26167,Lincoln Park Campus,"Monday,Wednesday"
