CCH 289 PSYCHOLOGY FROM AN AFRICAN-CENTERED PERSPECTIVE
"This course utilizes an African-centered theoretical framework to examine salient themes pertinent to the psychology of people of African descent, including child development, family functioning, identity, education, racial oppression, spirituality, and healing.  It takes an historical and topical approach to foster greater understanding about the course content.  Through this examination, the learner will become more knowledgeable about the psychological experiences of people of African descent, the role of history and culture in human development, and the subjectivity of research in the social and natural sciences. They will also reflect on the relevance of the course material to their personal lives."
Credit Hours,Teacher First Name,Teacher Last Name,Class Start Time,Class End Time,Class Section,Class Number,Location,Days
4,Derise,Tolliver,5:45 PM,9:00 PM,801,26537,Loop Campus,Wednesday
