CCS 282 NUTRITION BASICS AND BEYOND
"This introductory course will provide a framework for understanding the fundamentals of nutrition, vitamins and minerals, nutrition and disease prevention, food labeling, nutrition through the life cycle, weight management and more.  Each class will build upon the basics by exploring current issues and research related to specific topics. Throughout the course, students will begin to separate information from misinformation as well as gain practical knowledge to incorporate into day to day life."
Credit Hours,Teacher First Name,Teacher Last Name,Class Start Time,Class End Time,Class Section,Class Number,Location,Days
4,Elizabeth,Wall,5:45 PM,9:00 PM,801,26536,Loop Campus,Wednesday
