COM 415 COMPOSITION
The study of advanced compositional issues at the graduate level which will culminate in quarterly projects as well as a final composition project.
Credit Hours,Teacher First Name,Teacher Last Name,Class Start Time,Class End Time,Class Section,Class Number,Location,Days
2,Christopher,Jones,12:00 AM,12:00 AM,201,21894,Lincoln Park Campus,
2,Christopher,Jones,12:00 AM,12:00 AM,202,21895,Lincoln Park Campus,
2,Seung-Ah,Oh,12:00 AM,12:00 AM,203,22072,Lincoln Park Campus,
2,Seung-Ah,Oh,12:00 AM,12:00 AM,204,26665,Lincoln Park Campus,
2,Kurt,Westerberg,12:00 AM,12:00 AM,205,26666,Lincoln Park Campus,
2,Kurt,Westerberg,12:00 AM,12:00 AM,206,26667,Lincoln Park Campus,
