CSC 376 DISTRIBUTED SYSTEMS
"An introduction to distributed systems. Topics may include: architecture of distributed systems; networking; datagram-oriented and stream-oriented protocols; network programming (for example, the sockets API); remote procedure call and remote method invocation; processes and threads; code migration; software agents; naming of non-mobile and mobile entities; cryptography and security. PREREQUISITE(S): (CSC 301 or CSC 383 or CSC 393) and CSC 374."
Credit Hours,Teacher First Name,Teacher Last Name,Class Start Time,Class End Time,Class Section,Class Number,Location,Days
4,Karen,Heart,1:30 PM,3:00 PM,501,26726,Loop Campus,"Monday,Wednesday"
