CSL 489 PSYCHOPATHOLOGY
"This course provides students with an overview of normal and abnormal personality and behavior, and the DSM-5 and ICD classifications and descriptions of mental health disorders. Specific attention is given to diverse cultural perspectives in diagnosis and assessment."
Credit Hours,Teacher First Name,Teacher Last Name,Class Start Time,Class End Time,Class Section,Class Number,Location,Days
4,Patrice,Bounds,6:00 PM,9:15 PM,201,24443,Lincoln Park Campus,Monday
4,Philip,Gnilka,5:30 PM,8:45 PM,202,24444,Lincoln Park Campus,Wednesday
