CSL 484 ISSUES IN CLINICAL MENTAL HEALTH COUNSELING
"This course provides students with a review of up-to-date information on the issues related to community and clinical mental health counseling including but not limited to outcome evaluation, prevention and wellness strategies, advocacy strategies, counselor roles, reimbursement, paperwork, and referral processes."
Credit Hours,Teacher First Name,Teacher Last Name,Class Start Time,Class End Time,Class Section,Class Number,Location,Days
4,Philip,Gnilka,6:00 PM,9:15 PM,201,26617,Lincoln Park Campus,Tuesday
