ECE 759 TEACHING INTERNSHIP IN EARLY CHILDHOOD EDUCATION
"This teaching internship is designed to respond to the growing need for preparing high quality teaching professionals in the field. Early Childhood Education Doctoral students acquire hands-on experience in college-level teaching in early childhood education or related fields. The doctoral student will teach one course under the supervision of an early childhood program faculty member. The course to be taught is recommended by the supervising faculty advisor based on the doctoral student?s background and career goals. The major objectives of this internship are: 1) Demonstrating mastery of course content. 2) Demonstrating knowledge, skills, and dispositions for teaching college and university level students and pre-service early childhood professionals from diverse backgrounds."
Credit Hours,Teacher First Name,Teacher Last Name,Class Start Time,Class End Time,Class Section,Class Number,Location,Days
4,Gayle,Mindes,12:00 AM,12:00 AM,201,26638,Lincoln Park Campus,
