EE 334 ELEMENTARY SCIENCE INQUIRY TEACHING STRATEGIES
"This course is an introduction to instructional strategies for helping students in grades K-8 become science literate: i.e., to understand the nature of science and its impact on the world. Particular attention will be given to theoretical views about how children learn science and develop scientific process skills, e.g., skills in observing, classifying, collecting and interpreting data and questioning strategies, and ways to assess student progress. Daytime clinical hours are required."
Credit Hours,Teacher First Name,Teacher Last Name,Class Start Time,Class End Time,Class Section,Class Number,Location,Days
4,Richard,Kozoll,8:00 AM,11:10 AM,201,24390,Lincoln Park Campus,"Monday,Wednesday"
