EE 326 READING/LANGUAGE ARTS IN INTERMEDIATE AND MIDDLE GRADES
"This course extends Emerging Reading and Language Arts to facilitate increased independence in students as strategic readers and competent writers. It focuses on the further development of reading comprehension and writing abilities in the intermediate grades and middle school.  Emphasis is placed on the complex nature of literacy addressing issues such as content-area literacies, learning in and across languages, and critically consuming and producing a wide variety of texts (including online, multimedia and print based).  Application of course material is facilitated through the design, teaching, and reflection on literacy lesson(s) for intermediate learners in required field experiences."
Credit Hours,Teacher First Name,Teacher Last Name,Class Start Time,Class End Time,Class Section,Class Number,Location,Days
4,Frank,Tavano,8:00 AM,11:10 AM,201,24388,Lincoln Park Campus,"Tuesday,Thursday"
