ENG 320 ENGLISH RENAISSANCE LITERATURE
Survey of English literature from 1500 to 1660.
Credit Hours,Teacher First Name,Teacher Last Name,Class Start Time,Class End Time,Class Section,Class Number,Location,Days
4,Paula,McQuade,11:20 AM,12:50 PM,201,20748,Lincoln Park Campus,"Tuesday,Thursday"
