FA 387 AFRICAN-AMERICAN STUDIES IN CRITICAL PERSPECTIVE
"This course is important for students who seek to gain a comprehensive understanding of African-American history in the United States. It will begin with discussions of African culture, the Atlantic Slave Trade, and early forms of slavery/indenturing. It will pay particular attention to the colonial and Revolutionary experience, delving into the mass exodus of Africans during the Revolutionary War, and African-American's role and position in the country's formative years. Enslavement, the Civil War and Reconstruction will follow as key areas of study. In every discussion, students will be asked to look for parallels between the contemporary and 18th and 19th century African-American experience and, where appropriate, to identify key social and cultural thinkers and leaders of the various historical periods. The primary texts for the course will be John Hope Franklin's From Slavery to Freedom, articles and readings written by scholars and important early African-American artists and intellectuals, and video presentations."
Credit Hours,Teacher First Name,Teacher Last Name,Class Start Time,Class End Time,Class Section,Class Number,Location,Days
2,Nancy,Davis,,,801,26222,OnLine,
2,Nancy,Davis,,,802,26223,OnLine,
2,Nancy,Davis,,,803,26224,OnLine,
2,Nancy,Davis,,,804,26225,OnLine,
2,Nancy,Davis,,,805,26226,OnLine,
