FIN 540 CORPORATE GOVERNANCE
"This course addresses the overall role that internal audit plays as a critical part of an organization's risk control and governance structure. Internal risk management systems and metrics are examined in detail. Compliance with these risk parameters are examined from the perspective of the Chief Risk officer, the Board of Directors, and the Chief Executive Officer."
Credit Hours,Teacher First Name,Teacher Last Name,Class Start Time,Class End Time,Class Section,Class Number,Location,Days
4,Rebel,Cole,5:45 PM,9:00 PM,201,26792,Loop Campus,Thursday
