GAM 205 EVOLUTION OF GAMES
"This lecture course introduces students to the evolving forms, uses, and design of games. Topics covered include the relationship between game design and play, the role of games in fueling the technological imagination, the changing contexts in which games are designed and played (art, social impact, health, education), and the rise of the independent games sector. Students will produce weekly written responses to course material, lead a seminar discussion in small teams, and produce a final written or multimedia paper."
Credit Hours,Teacher First Name,Teacher Last Name,Class Start Time,Class End Time,Class Section,Class Number,Location,Days
4,Michael,Hiessboeck,1:30 PM,3:00 PM,501,22871,Loop Campus,"Tuesday,Thursday"
