GAM 376 ARTIFICIAL INTELLIGENCE FOR COMPUTER GAMES
"Artificial Intelligence (AI) is one of the essential components of a computer game. The course introduces basic concepts of AI. Emphasis will be placed on applications of AI in various genres of computer games. In the implementation component of this course students will be exposed to the existing AI game engines (middleware), which contain implemented AI algorithms that are ready to be applied into game code. These algorithms include: decision trees, pathfinding, neural networks, and script-driven game object behaviors. PREREQUISITE(S): (GAM 372 or SE 350) and GAM 325"
Credit Hours,Teacher First Name,Teacher Last Name,Class Start Time,Class End Time,Class Section,Class Number,Location,Days
4,William,Meyers,5:45 PM,9:00 PM,801,22442,Loop Campus,Thursday
4,William,Meyers,,,810,22443,OnLine,
