GAM 690 GAME DEVELOPMENT STUDIO I
"In this course and its continuation GAM 691, students will work in small teams to design and implement a computer game.  The courses must be taken consecutively.  PREREQUISITE: GAM 475"
Credit Hours,Teacher First Name,Teacher Last Name,Class Start Time,Class End Time,Class Section,Class Number,Location,Days
4,Doris,Rusch,10:10 AM,11:40 AM,501,22450,Loop Campus,"Tuesday,Thursday"
4,Brian,Schrank,3:10 PM,4:40 PM,502,23062,Loop Campus,"Tuesday,Thursday"
4,Allen,Turner,5:45 PM,9:00 PM,801,22451,Loop Campus,Tuesday
