HAA 260 AMERICAN ART
"This course examines American art (the British colonies and United States) from the colonial period to the mid-twentieth century.  Works of art are examined both in relation to American social and cultural history and also as aesthetic objects. The overarching themes of the class include the ""American-ness"" of American art, the relationship between American and European art, the function and production of art, and the expanding definition of American expression through multicultural diversity."
Credit Hours,Teacher First Name,Teacher Last Name,Class Start Time,Class End Time,Class Section,Class Number,Location,Days
4,Mark,Pohlad,1:00 PM,2:30 PM,201,26097,Lincoln Park Campus,"Monday,Wednesday"
