"HC 239 BUSINESS, TECHNOLOGY AND OUR GLOBAL FUTURE"
"Students will study the latest changes in the fields of intercultural communication and leadership development in today?s global corporations, including reading interviews from some of the world's leaders in manufacturing, energy, telecommunications, and health care from 26 countries. This course combines hard science with cutting-edge organizational research-based case studies in today?s trans-cultural global corporations. Students study key behaviors needed today to be successful in a global corporation, including cultural self-awareness, frame-shifting, inviting the unknown, third-way solutions, etc. Students will also study how ?disruptive technologies,??mobile internet, automation of knowledge work, cloud technology, next generation genomics, 3D printing, advanced materials, and renewable energy?are changing and will continue to revolutionize global corporations. This course concludes with an analysis of the effects of social justice and corporate social responsibility on today?s global corporations."
Credit Hours,Teacher First Name,Teacher Last Name,Class Start Time,Class End Time,Class Section,Class Number,Location,Days
2,Patricia,Szczerba,12:00 AM,12:00 AM,801,23807,OnLine,
2,Patricia,Szczerba,12:00 AM,12:00 AM,802,23808,OnLine,
2,Patricia,Szczerba,12:00 AM,12:00 AM,803,23809,OnLine,
