HLTH 140 MEDICAL TERMINOLOGY
"This course introduces the student to the specialized vocabulary of the Health Care environment. Terminology used in medical professions will be learned with an emphasis on understanding word roots and building vocabulary. Through studying each system of the body, terminology will be associated with specific anatomy, physiology, functions and minimal pathology of the human body."
Credit Hours,Teacher First Name,Teacher Last Name,Class Start Time,Class End Time,Class Section,Class Number,Location,Days
2,Sarah,Mays,,,201,25930,OnLine,
