HST 377 HISTORY OF POVERTY IN THE UNITED STATES
"The class will examine changes in the underclass, in perceptions of the poor, and in the remedies used to address poverty in the United States from the late eighteenth to the early twenty-first centuries."
Credit Hours,Teacher First Name,Teacher Last Name,Class Start Time,Class End Time,Class Section,Class Number,Location,Days
4,Thomas,Krainz,11:20 AM,12:50 PM,201,26121,Lincoln Park Campus,"Monday,Wednesday"
