"HST 183 UNITED STATES, 1900-PRESENT"
"A survey of the major social, political, economic and cultural themes in U.S. history from the Progressive era to the present. Formerly HST 282."
Credit Hours,Teacher First Name,Teacher Last Name,Class Start Time,Class End Time,Class Section,Class Number,Location,Days
4,Christopher,Rogers,8:00 AM,9:30 AM,201,20481,Lincoln Park Campus,"Monday,Wednesday"
4,Christopher,Rogers,11:20 AM,12:50 PM,202,21571,Lincoln Park Campus,"Monday,Wednesday"
4,Authens,Oppong Wadie,10:10 AM,11:40 AM,501,20482,Loop Campus,"Tuesday,Thursday"
