INT 388 SPECIAL TOPICS IN INTERNATIONAL STUDIES
Courses on topics in international studies not otherwise classifiable. (See schedule for current offerings).
Credit Hours,Teacher First Name,Teacher Last Name,Class Start Time,Class End Time,Class Section,Class Number,Location,Days
4,Alyssa,Garcia,1:00 PM,2:30 PM,201,21256,Lincoln Park Campus,"Tuesday,Thursday"
