JOUR 361 JOURNALISM LAW AND ETHICS
"This course examines legal and ethical issues in journalism with a focus on the First Amendment and the rights and responsibilities of the news media. Students will learn the constitutional rights of all citizens regarding censorship, defamation, privacy, intellectual property, and commercial speech, and will study how technological developments are challenging the courts with how to apply the law to digital media. Those legal aspects are considered in relation to case studies that chronicle journalists' ethical responsibilities, including protecting sources, balancing professional duties and personal values, sharing and using social media content, and avoiding deceptive reporting practices."
Credit Hours,Teacher First Name,Teacher Last Name,Class Start Time,Class End Time,Class Section,Class Number,Location,Days
4,Jason,Martin,10:10 AM,11:40 AM,502,23208,Loop Campus,"Monday,Wednesday"
