JOUR 543 LONG FORM REPORTING
"This is a project-based television reporting class that emphasizes longer form magazine and documentary journalism. Students will examine and apply story telling methods used in television news magazine programs and documentaries. The course will cover story arcs, character development, timelines, and other form techniques. Students will be in the field producing TV news magazine and mini-documentary reports."
Credit Hours,Teacher First Name,Teacher Last Name,Class Start Time,Class End Time,Class Section,Class Number,Location,Days
4,Christopher,Bury,1:30 PM,3:00 PM,201,25928,Loop Campus,"Tuesday,Thursday"
