LL 50 CONTINUING ACTIVITY STATUS
Active Status Continuation
Credit Hours,Teacher First Name,Teacher Last Name,Class Start Time,Class End Time,Class Section,Class Number,Location,Days
0,Michelle,Navarre Cleary,12:00 AM,12:00 AM,801,23594,Off Campus,
