LL 61 WRITING PROFICIENCY EXAM FEE ASSESMENT
Writing Proficiency Exam Fee Assessment
Credit Hours,Teacher First Name,Teacher Last Name,Class Start Time,Class End Time,Class Section,Class Number,Location,Days
0,Staff,Staff,12:00 AM,12:00 AM,801,23432,OnLine,
