MAT 136 BUSINESS CALCULUS II
"Integral calculus, matrix algebra, and probability theory with business applications."
Credit Hours,Teacher First Name,Teacher Last Name,Class Start Time,Class End Time,Class Section,Class Number,Location,Days
4,Biju,Varghese,8:30 AM,10:00 AM,501,25495,Loop Campus,"Monday,Wednesday"
4,Biju,Varghese,10:10 AM,11:40 AM,502,25496,Loop Campus,"Monday,Wednesday"
4,Bijan,Zandi,11:50 AM,1:20 PM,503,25497,Loop Campus,"Monday,Wednesday"
4,Michael,Modica,1:30 PM,3:00 PM,504,25498,Loop Campus,"Monday,Wednesday"
4,Dennis,Miller,8:30 AM,10:00 AM,505,25499,Loop Campus,"Tuesday,Thursday"
4,Dennis,Miller,10:10 AM,11:40 AM,506,25500,Loop Campus,"Tuesday,Thursday"
4,Yiou,Li,11:50 AM,1:20 PM,507,25501,Loop Campus,"Tuesday,Thursday"
4,William,Chin,1:30 PM,3:00 PM,508,25502,Loop Campus,"Tuesday,Thursday"
4,Ivan,Ivanov,3:10 PM,4:40 PM,509,25503,Loop Campus,"Tuesday,Thursday"
4,Manabendra,Das,5:45 PM,9:00 PM,802,25504,Loop Campus,Monday
4,George,Zazi,5:45 PM,9:00 PM,803,25505,Loop Campus,Tuesday
4,George,Zazi,5:45 PM,9:00 PM,804,25506,Loop Campus,Thursday
