MEN 300 AFRICAN MUSIC ENSEMBLE
"Students will learn musical techniques and repertory from cultures of Africa and the African diaspora. Course activities may include instrumental techniques, singing, and dancing. No prior experience with African music necessary."
Credit Hours,Teacher First Name,Teacher Last Name,Class Start Time,Class End Time,Class Section,Class Number,Location,Days
1,Katherine,Brucher,6:00 PM,8:00 PM,201,22011,Lincoln Park Campus,Monday
1,Avo,Randruut,6:00 PM,8:00 PM,201,22011,Lincoln Park Campus,Monday
