MGT 524 LEADERSHIP IN SPORTS: LESSONS FOR COACHING IN THE WORKPLACE
"A framework of leadership and coaching is utilized to critically examine the effectiveness of several sports' coaches and their leadership/coaching styles, as they motivate players to achieve their maximum level of performance.  Lessons from leading sports' coaches are then applied to the workplace, where managers motivate employees to perform to their potential.  The course also highlights the importance of unique situations in both the sports and workplace arenas.  Major topics to be covered include roles of coaches and players, skills of coaching, coaching teams, and ""flow"" in sports and organizations."
Credit Hours,Teacher First Name,Teacher Last Name,Class Start Time,Class End Time,Class Section,Class Number,Location,Days
4,Margaret,Posig,6:00 PM,9:15 PM,201,25008,Loop Campus,Tuesday
