MPS 522 FUNDAMENTALS OF HUMAN RESOURCE MANAGEMENT
"This course explores human resource issues facing employees with supervisory responsibilities in public service organizations, including those working in the volunteer, non-profit, religious, government, and education sectors. The course considers human resource planning, employee recruiting and selection, and the motivation and evaluation of staff personnel and managers both individually and in teams. Topics include recruiting and selecting employees and managers, fostering team development, managing employee stress, preventing workplace violence, and handling issues pertaining to termination, training, and development. The course also explores progressive discipline and, improving performance management of employees and volunteers."
Credit Hours,Teacher First Name,Teacher Last Name,Class Start Time,Class End Time,Class Section,Class Number,Location,Days
4,Jamie,Nolan,5:45 PM,9:00 PM,201,20849,Loop Campus,Tuesday
4,Alexander,Brown,5:45 PM,9:00 PM,202,20850,Loop Campus,Thursday
