MSC 322 ORGANIZATIONAL LEADERS
"Specific instruction is given in individual leader development, planning and execution of small unit operations, individual and team development, and the Army as a career choice. Must be a contracted ARMY ROTC cadet."
Credit Hours,Teacher First Name,Teacher Last Name,Class Start Time,Class End Time,Class Section,Class Number,Location,Days
2,Chad,King,8:30 AM,10:00 AM,201,20946,Off Campus,Tuesday
2,Chad,King,2:00 PM,4:00 PM,201,20946,Off Campus,Thursday
2,Chad,King,2:00 PM,4:00 PM,202,21134,Lincoln Park Campus,Thursday
2,Chad,King,2:30 PM,4:00 PM,202,21134,Lincoln Park Campus,Tuesday
