MSW 499 INDEPENDENT STUDY
"Individually-supervised learning experience, usually involving extensive research and written analysis."
Credit Hours,Teacher First Name,Teacher Last Name,Class Start Time,Class End Time,Class Section,Class Number,Location,Days
1,Staff,Staff,,,201,20879,Loop Campus,
