NSG 322 BASIC PATHOPHYSIOLOGY AND PHARMACOLOGY
"This course is designed to integrate the principles of pathophysiology and pharmacology in order to set the knowledge base necessary to manage pharmacological therapy for both acutely and chronically ill patients. The nursing role in facilitating safe and effective pharmacotherapy is emphasized. The registered nurse plays a vital role in the education and treatment of patients undergoing drug therapy. To function successfully in this role, the nurse must understand the relationship between: a) pathophysiologic mechanisms and manifestations of disease, b) the fundamental principles of drug action, c) the application of specific drugs in the treatment of disease, and d) related nursing care considerations. The course recognizes the importance of patient teaching as a nursing function and provides greater emphasis on this topic. Guidelines for and specific examples of patient teaching are covered in each session. Changes in structure and function as a result of normal development and aging are addressed. Fundamentals of drug administration and calculations related to pharmacotherapy in a way that ensures the patient's safety and satisfies medical and legal concerns are being reviewed."
Credit Hours,Teacher First Name,Teacher Last Name,Class Start Time,Class End Time,Class Section,Class Number,Location,Days
4,Jennifer,Jackson,1:00 PM,5:15 PM,201,25799,Lincoln Park Campus,Monday
4,Jennifer,Jackson,1:00 PM,5:15 PM,202,25800,Lincoln Park Campus,Wednesday
4,Larry,Maturin,1:00 PM,5:15 PM,203,25867,Rosalind Franklin University,Tuesday
