"PAX 240 VOICES OF WAR AND PEACE: ART, LITERATURE AND FILM"
"This course is an overview of the ways in which the arts, including literature and film, portray warfare and the attempts to end violence and build reconciliation and peace."
Credit Hours,Teacher First Name,Teacher Last Name,Class Start Time,Class End Time,Class Section,Class Number,Location,Days
4,Miklos,Gosztonyi,2:40 PM,4:10 PM,201,21288,Lincoln Park Campus,"Monday,Wednesday"
