PHL 510 KANT I
An introduction to the critical philosophy of Kant by concentrating on the Critique of Pure Reason.
Credit Hours,Teacher First Name,Teacher Last Name,Class Start Time,Class End Time,Class Section,Class Number,Location,Days
4,Avery,Goldman,3:00 PM,6:15 PM,201,26278,Lincoln Park Campus,Tuesday
