PM 556 ENTERPRISE PROJECT MANAGEMENT
"This course covers how an enterprise coordinates and effectively manages all its IT projects and programs through program management and the IT program management office.  Students will learn the role of the IT program management office in establishing and maintaining the project and program infrastructure and in assisting project managers, program managers, and the executive steering committee.  Students will analyze the role of program management in coordinating the delivery of expected program benefits, in managing stakeholder expectations, and in establishing program goverance.  PREREQUISITE(S): IS 430 or PM 430"
Credit Hours,Teacher First Name,Teacher Last Name,Class Start Time,Class End Time,Class Section,Class Number,Location,Days
4,Norma,Sutcliffe,5:45 PM,9:00 PM,801,22707,Loop Campus,Thursday
4,Norma,Sutcliffe,,,810,22708,OnLine,
