PRAD 393 SPECIAL TOPICS IN PUBLIC RELATIONS AND ADVERTISING
""
Credit Hours,Teacher First Name,Teacher Last Name,Class Start Time,Class End Time,Class Section,Class Number,Location,Days
4,Michael,Devlin,1:30 PM,3:00 PM,501,23304,Loop Campus,"Monday,Wednesday"
4,Staff,Staff,5:45 PM,9:00 PM,801,23306,Loop Campus,Monday
4,Caleb,Gardner,5:45 PM,9:00 PM,802,23305,Loop Campus,Tuesday
