PRF 122 MOVEMENT I
"Second course in a 3 course sequence.  Two quarters of movement based on the technique of yoga as a means for the discovery of body mechanics, physical alignment, self-use, and over-all self awareness. One quarter will continue with the elements explored in yoga but will be more focused on freeing the self through the use of music, movement improvisation, and a variety of coordination skills."
Credit Hours,Teacher First Name,Teacher Last Name,Class Start Time,Class End Time,Class Section,Class Number,Location,Days
4,Alie,McManus,9:00 AM,10:00 AM,201,25269,Lincoln Park Campus,"Monday,Wednesday"
4,Alie,McManus,11:20 AM,12:20 PM,201,25269,Lincoln Park Campus,Friday
4,Alie,McManus,10:10 AM,11:10 AM,202,25270,Lincoln Park Campus,"Monday,Wednesday"
4,Alie,McManus,1:00 PM,2:00 PM,202,25270,Lincoln Park Campus,Friday
