PSY 347 SOCIAL PSYCHOLOGY
"Survey of social psychological theory and research on how individual behavior, thoughts, and feelings are influenced by the social context in which they occur."
Credit Hours,Teacher First Name,Teacher Last Name,Class Start Time,Class End Time,Class Section,Class Number,Location,Days
4,Staff,Staff,9:40 AM,11:10 AM,201,25651,Lincoln Park Campus,"Tuesday,Thursday"
4,Christine,Reyna,1:00 PM,2:30 PM,202,25652,Lincoln Park Campus,"Monday,Wednesday"
4,Jennifer,Zimmerman,,,203,25667,OnLine,
