PSY 241 RESEARCH METHODS I
"Introduction to methods of psychological research to enable students to become more sophisticated consumers of research information. Students will learn and apply basic methodological concepts and skills. Students will conduct a non-experimental research project, analyze the data, and write a paper based on the project.  PSY 241 and PSY 242 may be taken in either order; one is not a prerequisite for the other."
Credit Hours,Teacher First Name,Teacher Last Name,Class Start Time,Class End Time,Class Section,Class Number,Location,Days
4,Staff,Staff,9:40 AM,11:10 AM,201,25637,Lincoln Park Campus,"Tuesday,Thursday"
4,Staff,Staff,2:40 PM,4:10 PM,202,25638,Lincoln Park Campus,"Monday,Wednesday"
4,Susan,Markunas,,,203,25639,OnLine,
