REL 242 HINDU THOUGHT AND CULTURE
"Hinduism is one of the world's oldest religions, but it is also the world's most diverse religion. Despite its variety, certain themes have remained throughout the ages--karma and ethical responsibility, liberation from the bonds of worldly existence through yoga and devotion, communication with the divine through ritual, and the many forms, male and female, that God can take. This course traces the development of Hinduism from 5000 years ago to the present, with emphasis on change and continuity in those themes."
Credit Hours,Teacher First Name,Teacher Last Name,Class Start Time,Class End Time,Class Section,Class Number,Location,Days
4,David,Gitomer,,,801,26323,OnLine,
