RUS 105 INTERMEDIATE RUSSIAN II
"Intensive practice in the use of Russian through listening, speaking, reading and writing, and continued enhancement of the cultural awareness intrinsic to those skills. Russian 104 or equivalent, including placement test or permission of instructor, is recommended."
Credit Hours,Teacher First Name,Teacher Last Name,Class Start Time,Class End Time,Class Section,Class Number,Location,Days
