SCG 411 PHILOSOPHY  OF EDUCATION
"This course examines the relationship of education to the moral and ethical dilemmas or predicaments of the human condition.  It will entail issues related to the nature of education's responsiveness, or lack there of, to the concerns of the human condition: for example, human alienation, suffering, success and failure, caring, freedom, responsibility, liberation and agency.  Special attention will be given to how these concerns influences or have social, cultural and political implications for how teachers address them within the teaching and learning process."
Credit Hours,Teacher First Name,Teacher Last Name,Class Start Time,Class End Time,Class Section,Class Number,Location,Days
4,Staff,Staff,5:30 PM,8:45 PM,201,26487,Lincoln Park Campus,Monday
