SEC 382 TEACHING HISTORY AND THE SOCIAL SCIENCES IN THE HIGH SCHOOL 2
"This course continues students' immersion into the pedagogical content knowledge development and practices that began in SEC 322 and SEC 372. The course provides students opportunities to continue to explore and develop research-based and theoretically grounded best practices in the teaching of the basic concepts of the seven social science disciplines with an emphasis on reflective and collaborative practice. The course provides extensive opportunities for planning, using, and evaluating a variety of instructional strategies, including the use of technology resources, through teaching demonstrations and modeling and field experiences. Students will fine-tune and reflect on writing instructional objectives, developing lesson plans, designing a curriculum unit, creating a classroom environment, and implementing instructional delivery strategies and methods that meet the needs of diverse learners, including English language learners and students who speak nonmainstream dialects of English. And like in SEC 372, students will reflect on and clearly articulate orally, in writing, and through practice an educational philosophy and theory. Students will also demonstrate commitment to teaching as a professional who acts responsibly, ethically, and collegially in accordance to Vincentian personalism. 30 Level 2 Field Experience hours required. COREQUISITE(S): Taken in conjunction with SCU 351."
Credit Hours,Teacher First Name,Teacher Last Name,Class Start Time,Class End Time,Class Section,Class Number,Location,Days
4,Staff,Staff,5:30 PM,8:45 PM,801,24469,Lincoln Park Campus,Wednesday
