SNC 191 ISSUES IN SCIENCE AND RELIGION
"This course develops students' understandings of the scientific and religious constructions of self in the modern world (natural and social). The institutions and bodies of knowledge comprising science, religion, and their overlap are critically analyzed. Key historic debates are examined, for example: the Vatican's trial of Galileo for his teachings of a heliocentric universe; the controversial reception of Darwin's theory of evolution; and the 2001 U.S. policy on embryonic stem cell research. Through such analyses, the course develops students' skills in making ethically-informed decisions and thus recognizing their roles in the public debates involving the intersection of science and religion.  Self, Society and the Modern World."
Credit Hours,Teacher First Name,Teacher Last Name,Class Start Time,Class End Time,Class Section,Class Number,Location,Days
4,Donald,Opitz,12:00 AM,12:00 AM,801,23820,OnLine,
