SNL 600 CONTINUING ACTIVITY STATUS
Continuing Activity Status
Credit Hours,Teacher First Name,Teacher Last Name,Class Start Time,Class End Time,Class Section,Class Number,Location,Days
0,Russell,Rogers,12:00 AM,12:00 AM,201,23523,Off Campus,
