SPN 251 SPANISH FOR THE MEDICAL PROFESSIONS
"This course aims at developing communication skills for students, health care professionals (physicians, nurses, nurse practitioners, social service workers) and workers in related fields. It reviews structures of Spanish grammar and introduces medical terms and expressions in the context of ""real life"" situations. Emphasis is given to developing cultural awareness of the U.S. Hispanic population and to preparing students to handle crises and daily concerns in a hospital or medical office setting and in other health care situations. SPN 106 or equivalent, including placement test or permission of instructor, is recommended."
Credit Hours,Teacher First Name,Teacher Last Name,Class Start Time,Class End Time,Class Section,Class Number,Location,Days
4,Maria Luisa,Ortega Hernandez,9:40 AM,11:10 AM,201,21367,Lincoln Park Campus,"Monday,Wednesday"
