T&L; 416 TEACHING AND LEARNING ELEMENTARY SCHOOL MATHEMATICS
"This course is an introduction to materials, processes for developing, and strategies for mathematical literacy in grades K-8.  Particular attention will be given to the theoretical views about how children learn mathematics, the proper use of manipulative materials, the development of mathematical thinking, e.g., skills in estimation, pattern recognition, or spatial perception; the use of technology, and ways to assess student progress. Lesson planning, teaching, and critical reflection are an integral component of this course. Clinical hours required.   COREQUISITES:  For T&L; EE majors, concurrent enrollment in T&L; 412 and T&L; 583 is required."
Credit Hours,Teacher First Name,Teacher Last Name,Class Start Time,Class End Time,Class Section,Class Number,Location,Days
4,Staff,Staff,6:00 PM,9:15 PM,201,24558,Lincoln Park Campus,Monday
