T&L; 442 EARLY LITERACY DEVELOPMENT AND SECOND LANGUAGE ACQUISITION
"This course will examine the process of learning and using a second language. Research in second language acquisition (SLA) is multi-disciplinary in nature, reflecting the complexity of language learning and use.  Linguistic, psychological and social processes that underlie language(s) learning and use will be introduced and applied to the understanding of this learning in young children.  In this course, language acquisition theory concerning relationships between early literacy and oral language development in first and subsequent languages will be addressed."
Credit Hours,Teacher First Name,Teacher Last Name,Class Start Time,Class End Time,Class Section,Class Number,Location,Days
4,Jennifer,Mata-McMahon,12:00 AM,12:00 AM,201,26444,OnLine,
