T&L; 481 INTERNSHIP IN PRESCHOOL SETTING (75 CLOCK HOURS OF SUPERVISED EXPERIENCE)
"Candidates conduct 75 hours of intense supervised field work in preschool during the winter quarter. The internship is designed for advanced ECE candidates to be taken before student teaching.  Candidates taking this internship have either taken ECE 310: Preprimary Programs: Curriculum and Strategy (at the undergraduate level), and T&L; 432: ECE Curriculum Strategies and Philosophy (at the graduate level) in a previous quarter, or they are taking these courses as co-requisites with this internship."
Credit Hours,Teacher First Name,Teacher Last Name,Class Start Time,Class End Time,Class Section,Class Number,Location,Days
2,Alice,Moss,8:00 AM,11:00 AM,201,24486,Lincoln Park Campus,"Tuesday,Thursday"
