TDC 597 TOPICS IN DATA COMMUNICATIONS
This is an independent study course.  (PREREQUISITE(S):Consent of instructor. Independent Study form required).
Credit Hours,Teacher First Name,Teacher Last Name,Class Start Time,Class End Time,Class Section,Class Number,Location,Days
4,Jean-Philippe,Labruyere,5:45 PM,9:00 PM,801,23060,Loop Campus,Monday
