THE 622 ARTS LEADERSHIP SYNTHESIS SEMINAR
"All study revolves around this weekly seminar that includes aspects of the Chicago Shakespeare work experience and DePaul course integration in addition to readings, field trips, projects, and time for independent study.  The Synthesis Seminar is fluid and reflective, allowing for both examination of coursework and on-the-job experience.  Each seminar session synthesizes the students' weekly studies, experiences both at work and in the community, independent research, and natural curiosity in close connection with Theatre School faculty, program director, and the Chicago Shakespeare department heads."
Credit Hours,Teacher First Name,Teacher Last Name,Class Start Time,Class End Time,Class Section,Class Number,Location,Days
3,Jan,Kallish,2:45 PM,5:00 PM,201,25359,Lincoln Park Campus,Wednesday
3,Alan,Salzenstein,2:45 PM,5:00 PM,201,25359,Lincoln Park Campus,Wednesday
