THE 302 THEATRE MANAGEMENT II: HUMAN RESOURCES MANAGEMENT IN THE COMMERCIAL THEATRE
"Through lecture, discussion and projects, the student learns about human resource management and compliance with federal employment laws including review of employee handbooks, employee benefits, payroll and withholding, I-9, W-2 and W-4 forms, employee vs independent contractor status as well as hiring someone who is a corporation. The course reviews the history, membership, contracts and work rules of the theatrical unions in the United States, collective bargaining, labor arbitration and non-union human resource management in commercial theatre."
Credit Hours,Teacher First Name,Teacher Last Name,Class Start Time,Class End Time,Class Section,Class Number,Location,Days
4,James,Jensen,9:00 AM,12:15 PM,201,25257,Lincoln Park Campus,Friday
