WGS 387 TEEN VIOLENCE PREVENTION
"This course is an interdisciplinary experiential/service learning seminar in which students will participate in, and critically reflect upon, a relationship violence prevention program in Chicago area high schools. This class will explore adolescent development, considering the ways in which economic, social, political and cultural contexts influence that development.  In addition, we will focus on adolescent relationships, group work with teens, aggression and violence in intimate -- in particular teen -- relationships, and evaluation of programs to prevent teen violence.  Each week students will address a set of theoretical and/or practical themes that in some way relate to teen violence and aggression, as well as prevention of such violence.  Discussions of each theme will draw on course readings, lecture materials, and perhaps most importantly, students' experiences working with teens in schools."
Credit Hours,Teacher First Name,Teacher Last Name,Class Start Time,Class End Time,Class Section,Class Number,Location,Days
4,Beth,Catlett,6:00 PM,9:15 PM,801,21115,Lincoln Park Campus,Monday
