"WGS 465 GLOBALIZATION, TRANSNATIONALISM, AND GENDER"
"This course examines how gender-based inequities are linked to global and transnational politics of power, security, political economy, militarism, and ecology.  There will be a focus on how gender roles, relationships, and identities are constructed, deployed, challenged, and resisted around the globe, paying particular attention to how systems and structures of gender, race, class, sexuality, age, ability, culture, religion, nation etc. are interconnected.  It will explore how resistance to structural inequities is constructed within and across national boundaries, paying particular attention to the role of non-governmental organizations (NGOs) worldwide and how the responses of NGOs to crises (e.g., nuclearism, uneven economic development, environmental degradation) highlight the shortcomings of state-centered decision making."
Credit Hours,Teacher First Name,Teacher Last Name,Class Start Time,Class End Time,Class Section,Class Number,Location,Days
4,Sanjukta,Mukherjee,6:00 PM,9:15 PM,201,20940,Lincoln Park Campus,Tuesday
